<svg width="249" height="142" viewBox="0 0 249 142" fill="none" xmlns="http://www.w3.org/2000/svg">
<path d="M187.982 140.091H187.877H179.28L155.376 64.4998L132.94 140.091H124.238L155.166 35.7731L187.982 140.091Z" fill="#206D97"/>
<path d="M153.07 99.517C176.405 99.517 195.321 77.4085 195.321 50.1364C195.321 22.8642 176.405 0.755737 153.07 0.755737C129.735 0.755737 110.818 22.8642 110.818 50.1364C110.818 77.4085 129.735 99.517 153.07 99.517Z" fill="#206D97"/>
<path d="M147.094 99.517C170.428 99.517 189.345 77.4085 189.345 50.1364C189.345 22.8642 170.428 0.755737 147.094 0.755737C123.759 0.755737 104.842 22.8642 104.842 50.1364C104.842 77.4085 123.759 99.517 147.094 99.517Z" fill="white"/>
<path d="M147.094 54.6447C149.236 54.6447 150.973 52.6263 150.973 50.1364C150.973 47.6466 149.236 45.6282 147.094 45.6282C144.951 45.6282 143.214 47.6466 143.214 50.1364C143.214 52.6263 144.951 54.6447 147.094 54.6447Z" fill="#358BC3"/>
<path d="M147.093 64.8142C140.174 64.8142 134.512 58.2092 134.512 50.0315C134.512 41.8538 140.174 35.2488 147.093 35.2488C154.013 35.2488 159.674 41.8538 159.674 50.0315C159.674 58.2092 154.013 64.8142 147.093 64.8142ZM147.093 39.5473C142.166 39.5473 138.077 44.2652 138.077 50.1364C138.077 56.0075 142.166 60.7254 147.093 60.7254C152.021 60.7254 156.11 56.0075 156.11 50.1364C156.11 44.2652 152.021 39.5473 147.093 39.5473Z" fill="#358BC3"/>
<path d="M147.093 77.5002C134.197 77.5002 123.608 65.2336 123.608 50.1364C123.608 35.0391 134.093 22.7726 147.093 22.7726C159.989 22.7726 170.578 35.0391 170.578 50.1364C170.578 65.2336 159.989 77.5002 147.093 77.5002ZM147.093 26.9663C136.189 26.9663 127.278 37.3456 127.278 50.1364C127.278 62.9271 136.189 73.3065 147.093 73.3065C157.997 73.3065 166.908 62.9271 166.908 50.1364C166.908 37.3456 157.997 26.9663 147.093 26.9663Z" fill="#358BC3"/>
<path d="M147.093 90.1861C128.222 90.1861 112.81 72.2581 112.81 50.1364C112.81 28.0147 128.222 10.0867 147.093 10.0867C165.965 10.0867 181.377 28.0147 181.377 50.1364C181.377 72.2581 165.965 90.1861 147.093 90.1861ZM147.093 14.2804C130.214 14.2804 116.375 30.3213 116.375 50.1364C116.375 69.9516 130.109 85.9924 147.093 85.9924C164.078 85.9924 177.812 69.9516 177.812 50.1364C177.812 30.3213 163.973 14.2804 147.093 14.2804Z" fill="#358BC3"/>
<path d="M156.11 5.47369H98.9707V7.04633H156.11V5.47369Z" fill="#083649"/>
<path d="M100.018 6.73188L93.3085 10.7159H85.1309L89.6391 6.20767L85.1309 1.69946H93.3085L100.018 5.7883V6.73188Z" fill="#083649"/>
<path d="M128.851 89.3474H71.7124V90.92H128.851V89.3474Z" fill="#083649"/>
<path d="M72.762 90.6055L66.0521 94.6944H57.7695L62.3826 90.1862L57.7695 85.5731H66.0521L72.762 89.662V90.6055Z" fill="#083649"/>
<path d="M11.8898 91.3246L10.5591 92.1625L41.0027 140.514L42.3335 139.676L11.8898 91.3246Z" fill="#083649"/>
<path d="M11.4278 92.912L4.40337 89.3474L0 82.4278L6.29053 83.8956L7.65347 77.605L12.0568 84.5246L12.1617 92.3878L11.4278 92.912Z" fill="#083649"/>
<path d="M214.067 85.0255L212.556 85.463L228.452 140.345L229.963 139.907L214.067 85.0255Z" fill="#083649"/>
<path d="M213.249 86.4117L207.378 81.0648L205.176 73.2016L210.733 76.2421L213.878 70.6854L216.08 78.5486L214.088 86.0972L213.249 86.4117Z" fill="#083649"/>
<path d="M231.103 83.0784L229.535 83.1923L233.672 140.183L235.241 140.069L231.103 83.0784Z" fill="#083649"/>
<path d="M229.919 84.2101L225.411 77.8147L224.782 69.637L229.604 73.8307L233.798 69.008L234.427 77.1857L230.863 84.1053L229.919 84.2101Z" fill="#083649"/>
<path d="M249 139.147H11.5322V141.244H249V139.147Z" fill="#206D97"/>
</svg>
