<svg width="170" height="255" viewBox="0 0 170 255" fill="none" xmlns="http://www.w3.org/2000/svg">
<path d="M163.014 40.5568H6.72744C3.03203 40.5568 0.000976562 37.5673 0.000976562 33.8303V17.3463C0.000976562 13.6509 2.9905 10.6198 6.72744 10.6198H163.014C166.71 10.6198 169.741 13.6094 169.741 17.3463V33.8718C169.699 37.5673 166.71 40.5568 163.014 40.5568Z" fill="#F6A01D"/>
<path d="M163.305 27.4775H6.43631C2.90699 27.4775 0.0419922 24.6126 0.0419922 21.0832V6.67527C0.0419922 3.14594 2.90699 0.280945 6.43631 0.280945H163.346C166.875 0.280945 169.74 3.14594 169.74 6.67527V21.0832C169.699 24.6126 166.834 27.4775 163.305 27.4775Z" fill="#FFCF34"/>
<path d="M15.4463 82.4105L84.8702 109.316V33.0414H15.4463V82.4105Z" fill="#469FD8"/>
<path d="M154.294 82.4105L84.8701 109.316V33.0414H154.294V82.4105Z" fill="#469FD8"/>
<path d="M63.0304 100.846L37.2871 90.8809V33.0414H63.0304V100.846Z" fill="#358BC3"/>
<path d="M106.711 100.846L132.454 90.8809V33.0414H106.711V100.846Z" fill="#358BC3"/>
<path d="M84.8704 254.351C131.72 254.351 169.699 216.372 169.699 169.523C169.699 122.673 131.72 84.6942 84.8704 84.6942C38.021 84.6942 0.0419922 122.673 0.0419922 169.523C0.0419922 216.372 38.021 254.351 84.8704 254.351Z" fill="#F6A01D"/>
<path d="M84.8699 235.168C126.651 235.168 160.522 201.297 160.522 159.516C160.522 117.734 126.651 83.8638 84.8699 83.8638C43.0884 83.8638 9.21777 117.734 9.21777 159.516C9.21777 201.297 43.0884 235.168 84.8699 235.168Z" fill="#F6A01D"/>
<path d="M84.8709 74.6875C37.9931 74.6875 0.000976562 112.68 0.000976562 159.516C0.000976562 206.394 37.9931 244.344 84.8709 244.344C131.749 244.344 169.699 206.352 169.699 159.516C169.699 112.68 131.749 74.6875 84.8709 74.6875ZM84.8709 228.94C46.5466 228.94 15.447 197.882 15.447 159.516C15.447 121.192 46.505 90.092 84.8709 90.092C123.195 90.092 154.295 121.15 154.295 159.516C154.295 197.84 123.195 228.94 84.8709 228.94Z" fill="#FFCF34"/>
<path d="M65.2725 167.488C64.0268 167.903 62.6982 168.235 61.2864 168.526C59.8747 168.817 58.3799 168.941 56.8852 168.941C52.816 168.941 49.2037 168.401 46.0896 167.28C42.9755 166.159 40.3596 164.582 38.2005 162.505C36.0414 160.429 34.4635 157.938 33.384 155.032C32.3044 152.125 31.7646 148.886 31.7646 145.357C31.7646 142.367 32.1799 139.544 33.0518 136.804C33.9238 134.063 35.0864 131.696 36.5396 129.62C37.9929 127.586 39.6537 125.967 41.5222 124.721C43.3907 123.517 45.3422 122.894 47.3352 122.894C49.8265 122.894 51.861 123.641 53.4804 125.095C55.0582 126.548 56.1378 128.292 56.7191 130.285C54.3523 132.236 52.5254 134.561 51.1552 137.26C49.785 139.959 49.1206 142.783 49.1206 145.772C49.1206 148.969 49.951 151.378 51.5704 153.08C53.1897 154.782 55.2658 155.613 57.7571 155.613C59.5425 155.613 60.9958 155.198 62.0753 154.409C63.1549 153.62 63.6947 152.54 63.6947 151.129C63.6947 150.298 63.4871 149.343 63.1134 148.222C62.7397 147.101 62.2829 146.063 61.8262 145.108C64.1929 141.579 67.4316 139.793 71.5837 139.793C73.3692 139.793 74.9885 140.125 76.4003 140.748C77.812 141.371 79.0161 142.201 79.9296 143.239C80.8431 144.277 81.5904 145.482 82.0472 146.81C82.5454 148.181 82.7946 149.551 82.7946 151.004C82.7946 152.748 82.4624 154.45 81.798 156.111C81.1337 157.772 80.1372 159.308 78.7254 160.678C80.8015 164.955 81.8396 169.273 81.8396 173.55C81.8396 176.124 81.4659 178.491 80.76 180.733C80.0126 182.934 78.9746 184.885 77.6459 186.546C76.3172 188.207 74.6148 189.536 72.6218 190.491C70.6288 191.446 68.3451 191.944 65.8538 191.944C62.8227 191.944 60.2899 191.155 58.3384 189.536C56.3869 187.917 55.3904 185.425 55.3904 181.937V180.983C58.3799 180.65 60.8712 179.695 62.9058 178.118C64.9403 176.54 65.9783 174.381 65.9783 171.64C65.9783 170.934 65.9368 170.27 65.8538 169.564C65.6877 168.983 65.5216 168.235 65.2725 167.488Z" fill="#FFCF34"/>
<path d="M89.4385 158.146C89.4385 154.616 90.0198 151.419 91.1409 148.554C92.3035 145.689 93.9228 143.239 96.0404 141.163C98.158 139.129 100.732 137.509 103.763 136.388C106.794 135.226 110.199 134.686 113.936 134.686C117.673 134.686 121.078 135.267 124.109 136.388C127.14 137.551 129.756 139.129 131.915 141.163C134.074 143.198 135.693 145.648 136.856 148.554C138.019 151.419 138.558 154.616 138.558 158.146C138.558 161.675 137.977 164.872 136.856 167.737C135.693 170.602 134.074 173.052 131.915 175.128C129.756 177.162 127.182 178.74 124.109 179.861C121.078 180.982 117.673 181.522 113.936 181.522C110.199 181.522 106.794 180.982 103.763 179.861C100.732 178.74 98.158 177.162 96.0404 175.128C93.9228 173.093 92.3035 170.644 91.1409 167.737C90.0198 164.872 89.4385 161.675 89.4385 158.146ZM106.587 158.146C106.587 161.26 107.21 163.751 108.497 165.62C109.784 167.488 111.611 168.443 113.936 168.443C116.303 168.443 118.088 167.488 119.375 165.62C120.663 163.751 121.285 161.26 121.285 158.146C121.285 155.032 120.663 152.54 119.375 150.672C118.088 148.803 116.261 147.848 113.936 147.848C111.569 147.848 109.784 148.803 108.497 150.672C107.21 152.54 106.587 155.032 106.587 158.146Z" fill="#FFCF34"/>
</svg>
