<svg width="41" height="61" viewBox="0 0 41 61" fill="none" xmlns="http://www.w3.org/2000/svg">
<path d="M38.7231 9.56736H1.59784C0.720013 9.56736 0 8.85721 0 7.96951V4.06367C0 3.18584 0.710149 2.46582 1.59784 2.46582H38.7231C39.6009 2.46582 40.321 3.17597 40.321 4.06367V7.97938C40.3111 8.85721 39.6009 9.56736 38.7231 9.56736Z" fill="#F6A01D"/>
<path d="M38.7922 6.46043H1.51894C0.680567 6.46043 0 5.77987 0 4.94149V1.51894C0 0.680564 0.680567 0 1.51894 0H38.7922C39.6305 0 40.3111 0.680564 40.3111 1.51894V4.94149C40.3111 5.77987 39.6305 6.46043 38.7922 6.46043Z" fill="#FFCF34"/>
<path d="M3.66895 19.5194L20.1603 25.9009V7.79199H3.66895V19.5194Z" fill="#469FD8"/>
<path d="M36.6419 19.5194L20.1604 25.9009V7.79199H36.6419V19.5194Z" fill="#469FD8"/>
<path d="M14.9724 23.8888L8.85718 21.5315V7.79199H14.9724V23.8888Z" fill="#358BC3"/>
<path d="M25.3386 23.8888L31.4637 21.5315V7.79199H25.3386V23.8888Z" fill="#358BC3"/>
<path d="M20.1609 60.3532C31.2898 60.3532 40.3115 51.3315 40.3115 40.2026C40.3115 29.0737 31.2898 20.052 20.1609 20.052C9.032 20.052 0.0102539 29.0737 0.0102539 40.2026C0.0102539 51.3315 9.032 60.3532 20.1609 60.3532Z" fill="#F6A01D"/>
<path d="M20.1608 55.8063C30.0858 55.8063 38.1316 47.7605 38.1316 37.8355C38.1316 27.9104 30.0858 19.8646 20.1608 19.8646C10.2358 19.8646 2.18994 27.9104 2.18994 37.8355C2.18994 47.7605 10.2358 55.8063 20.1608 55.8063Z" fill="#F6A01D"/>
<path d="M20.1605 17.6749C9.02488 17.6749 0 26.6998 0 37.8255C0 48.9612 9.02488 57.9762 20.1605 57.9762C31.2961 57.9762 40.3111 48.9513 40.3111 37.8255C40.3111 26.6998 31.2862 17.6749 20.1605 17.6749ZM20.1605 54.3169C11.0567 54.3169 3.66912 46.9392 3.66912 37.8255C3.66912 28.7218 11.0468 21.3342 20.1605 21.3342C29.2643 21.3342 36.6518 28.7119 36.6518 37.8255C36.642 46.9392 29.2643 54.3169 20.1605 54.3169Z" fill="#FFCF34"/>
<path d="M22.0043 39.7194C21.7084 39.818 21.3928 39.8969 21.0574 39.9659C20.7221 40.035 20.367 40.0646 20.0119 40.0646C19.0453 40.0646 18.1872 39.9363 17.4475 39.67C16.7078 39.4037 16.0864 39.0289 15.5735 38.5358C15.0606 38.0426 14.6858 37.4508 14.4293 36.7604C14.1729 36.07 14.0447 35.3006 14.0447 34.4622C14.0447 33.7521 14.1433 33.0814 14.3504 32.4304C14.5576 31.7794 14.8337 31.2172 15.179 30.7241C15.5242 30.2408 15.9187 29.8561 16.3625 29.5602C16.8064 29.2742 17.27 29.1262 17.7434 29.1262C18.3352 29.1262 18.8185 29.3038 19.2032 29.649C19.578 29.9942 19.8344 30.4084 19.9725 30.8819C19.4103 31.3455 18.9763 31.8978 18.6508 32.5389C18.3253 33.18 18.1675 33.8507 18.1675 34.5609C18.1675 35.3203 18.3648 35.8924 18.7494 36.2968C19.1341 36.7012 19.6273 36.8985 20.2191 36.8985C20.6432 36.8985 20.9884 36.7998 21.2449 36.6124C21.5013 36.425 21.6295 36.1686 21.6295 35.8332C21.6295 35.636 21.5802 35.4091 21.4914 35.1428C21.4027 34.8765 21.2942 34.6299 21.1857 34.4031C21.7479 33.5647 22.5172 33.1406 23.5035 33.1406C23.9276 33.1406 24.3123 33.2195 24.6477 33.3674C24.983 33.5154 25.2691 33.7126 25.486 33.9592C25.703 34.2058 25.8806 34.4918 25.9891 34.8075C26.1074 35.1329 26.1666 35.4584 26.1666 35.8036C26.1666 36.2179 26.0877 36.6223 25.9299 37.0168C25.7721 37.4114 25.5354 37.7763 25.2 38.1018C25.6932 39.1177 25.9398 40.1435 25.9398 41.1594C25.9398 41.7709 25.851 42.3331 25.6833 42.8657C25.5058 43.3885 25.2592 43.8521 24.9436 44.2466C24.6279 44.6411 24.2235 44.9567 23.7501 45.1836C23.2767 45.4104 22.7342 45.5288 22.1424 45.5288C21.4224 45.5288 20.8207 45.3414 20.3572 44.9567C19.8936 44.5721 19.6569 43.9803 19.6569 43.1518V42.9249C20.367 42.846 20.9588 42.6191 21.4421 42.2443C21.9254 41.8695 22.172 41.3567 22.172 40.7057C22.172 40.538 22.1621 40.3802 22.1424 40.2125C22.1128 40.0744 22.0734 39.9068 22.0043 39.7194Z" fill="#FFCF34"/>
</svg>
