<svg width="170" height="255" viewBox="0 0 170 255" fill="none" xmlns="http://www.w3.org/2000/svg">
<path d="M163.014 40.9228H6.72744C3.03203 40.9228 0.000976562 37.9333 0.000976562 34.1963V17.7123C0.000976562 14.0169 2.9905 10.9858 6.72744 10.9858H163.014C166.71 10.9858 169.741 13.9753 169.741 17.7123V34.2378C169.741 37.9332 166.71 40.9228 163.014 40.9228Z" fill="#838282"/>
<path d="M163.346 27.8435H6.43631C2.90699 27.8435 0.0419922 24.9785 0.0419922 21.4492V7.04125C0.0419922 3.51192 2.90699 0.646927 6.43631 0.646927H163.346C166.875 0.646927 169.74 3.51192 169.74 7.04125V21.4492C169.74 24.9785 166.875 27.8435 163.346 27.8435Z" fill="#979797"/>
<path d="M15.4463 82.7764L84.8702 109.682V33.4074H15.4463V82.7764Z" fill="#ABABAB"/>
<path d="M154.294 82.7764L84.8701 109.682V33.4074H154.294V82.7764Z" fill="#ABABAB"/>
<path d="M63.0304 101.212L37.2871 91.2468V33.4074H63.0304V101.212Z" fill="#848484"/>
<path d="M106.711 101.212L132.454 91.2468V33.4074H106.711V101.212Z" fill="#848484"/>
<path d="M84.8704 254.717C131.72 254.717 169.699 216.738 169.699 169.889C169.699 123.039 131.72 85.0602 84.8704 85.0602C38.0209 85.0602 0.0419922 123.039 0.0419922 169.889C0.0419922 216.738 38.0209 254.717 84.8704 254.717Z" fill="#838282"/>
<path d="M84.8699 235.534C126.651 235.534 160.522 201.663 160.522 159.882C160.522 118.1 126.651 84.2297 84.8699 84.2297C43.0884 84.2297 9.21777 118.1 9.21777 159.882C9.21777 201.663 43.0884 235.534 84.8699 235.534Z" fill="#838282"/>
<path d="M84.8709 75.0534C37.9931 75.0534 0.000976562 113.046 0.000976562 159.882C0.000976562 206.76 37.9931 244.71 84.8709 244.71C131.749 244.71 169.699 206.718 169.699 159.882C169.741 113.046 131.749 75.0534 84.8709 75.0534ZM84.8709 229.306C46.5465 229.306 15.447 198.248 15.447 159.882C15.447 121.558 46.505 90.4579 84.8709 90.4579C123.195 90.4579 154.295 121.516 154.295 159.882C154.295 198.206 123.195 229.306 84.8709 229.306Z" fill="#979797"/>
<path d="M52.1511 167.48C51.2792 167.771 50.3242 168.02 49.3277 168.228C48.3311 168.435 47.2931 168.518 46.2136 168.518C43.307 168.518 40.7742 168.145 38.5736 167.356C36.3729 166.567 34.5045 165.446 32.9682 163.993C31.4319 162.539 30.3108 160.754 29.5634 158.719C28.8161 156.643 28.4424 154.401 28.4424 151.868C28.4424 149.751 28.733 147.758 29.3558 145.806C29.9787 143.855 30.8091 142.194 31.8056 140.74C32.8437 139.287 34.0063 138.125 35.3349 137.294C36.6636 136.422 38.0338 136.007 39.4456 136.007C41.1895 136.007 42.6427 136.505 43.7638 137.543C44.8849 138.581 45.6322 139.785 46.0475 141.239C44.3866 142.609 43.0579 144.27 42.1029 146.18C41.1479 148.09 40.6497 150.083 40.6497 152.2C40.6497 154.443 41.231 156.186 42.3936 157.391C43.5562 158.595 45.0094 159.176 46.7534 159.176C48.0405 159.176 49.037 158.885 49.7844 158.346C50.5318 157.764 50.9055 157.017 50.9055 156.02C50.9055 155.439 50.7809 154.733 50.4903 153.944C50.2412 153.155 49.909 152.408 49.5768 151.744C51.2376 149.252 53.5629 148.007 56.4694 148.007C57.7566 148.007 58.8776 148.214 59.8741 148.671C60.8706 149.128 61.7011 149.709 62.3654 150.415C63.0298 151.162 63.528 151.993 63.8602 152.948C64.1924 153.903 64.3585 154.899 64.3585 155.937C64.3585 157.183 64.1093 158.346 63.6526 159.55C63.1958 160.712 62.4485 161.792 61.4935 162.788C62.9467 165.819 63.6941 168.851 63.6941 171.882C63.6941 173.709 63.445 175.369 62.9052 176.947C62.407 178.525 61.6596 179.895 60.7046 181.058C59.7496 182.22 58.5455 183.175 57.1337 183.84C55.722 184.546 54.1027 184.878 52.3588 184.878C50.1996 184.878 48.4142 184.296 47.044 183.175C45.6738 182.054 44.9679 180.269 44.9679 177.819V177.155C47.0855 176.906 48.8709 176.241 50.2827 175.12C51.7359 173.999 52.4418 172.504 52.4418 170.511C52.4418 170.013 52.4003 169.515 52.3588 169.058C52.4418 168.56 52.3172 168.02 52.1511 167.48Z" fill="#979797"/>
<path d="M69.2578 160.878C69.2578 158.387 69.673 156.103 70.4619 154.069C71.2509 152.034 72.4135 150.29 73.9083 148.837C75.403 147.384 77.2299 146.263 79.3891 145.474C81.5482 144.685 83.9565 144.27 86.5723 144.27C89.2297 144.27 91.6379 144.685 93.7555 145.474C95.9146 146.263 97.7416 147.425 99.2779 148.837C100.814 150.29 101.977 152.034 102.766 154.069C103.555 156.103 103.97 158.387 103.97 160.878C103.97 163.37 103.555 165.653 102.766 167.688C101.977 169.722 100.773 171.466 99.2779 172.92C97.7416 174.373 95.9146 175.494 93.7555 176.283C91.5964 177.072 89.1882 177.445 86.5723 177.445C83.9149 177.445 81.5067 177.072 79.3891 176.283C77.2299 175.494 75.403 174.373 73.9083 172.92C72.4135 171.466 71.2509 169.722 70.4619 167.688C69.673 165.653 69.2578 163.37 69.2578 160.878ZM81.3821 160.878C81.3821 163.079 81.8388 164.864 82.7523 166.152C83.6658 167.48 84.953 168.145 86.6138 168.145C88.2747 168.145 89.5618 167.48 90.4753 166.152C91.3888 164.823 91.8455 163.079 91.8455 160.878C91.8455 158.678 91.3888 156.892 90.4753 155.605C89.5618 154.276 88.2747 153.612 86.6138 153.612C84.953 153.612 83.6658 154.276 82.7523 155.605C81.8388 156.892 81.3821 158.678 81.3821 160.878Z" fill="#979797"/>
<path d="M106.959 160.878C106.959 158.387 107.374 156.103 108.163 154.069C108.952 152.034 110.115 150.29 111.609 148.837C113.104 147.384 114.931 146.263 117.09 145.474C119.249 144.685 121.658 144.27 124.273 144.27C126.931 144.27 129.339 144.685 131.457 145.474C133.616 146.263 135.443 147.425 136.979 148.837C138.515 150.29 139.678 152.034 140.467 154.069C141.256 156.103 141.671 158.387 141.671 160.878C141.671 163.37 141.256 165.653 140.467 167.688C139.678 169.722 138.474 171.466 136.979 172.92C135.443 174.373 133.616 175.494 131.457 176.283C129.298 177.072 126.889 177.445 124.273 177.445C121.616 177.445 119.208 177.072 117.09 176.283C114.931 175.494 113.104 174.373 111.609 172.92C110.115 171.466 108.952 169.722 108.163 167.688C107.374 165.653 106.959 163.37 106.959 160.878ZM119.083 160.878C119.083 163.079 119.54 164.864 120.453 166.152C121.367 167.48 122.654 168.145 124.315 168.145C125.976 168.145 127.263 167.48 128.176 166.152C129.09 164.823 129.547 163.079 129.547 160.878C129.547 158.678 129.09 156.892 128.176 155.605C127.263 154.276 125.976 153.612 124.315 153.612C122.654 153.612 121.367 154.276 120.453 155.605C119.54 156.892 119.083 158.678 119.083 160.878Z" fill="#979797"/>
</svg>
