<svg width="170" height="255" viewBox="0 0 170 255" fill="none" xmlns="http://www.w3.org/2000/svg">
<path d="M163.014 40.8248H6.72744C3.03203 40.8248 0.000976562 37.8353 0.000976562 34.0983V17.6558C0.000976562 13.9604 2.9905 10.9293 6.72744 10.9293H163.014C166.71 10.9293 169.741 13.9189 169.741 17.6558V34.1398C169.741 37.8353 166.71 40.8248 163.014 40.8248Z" fill="#838282"/>
<path d="M163.346 27.7455H6.43631C2.90699 27.7455 0.0419922 24.8805 0.0419922 21.3512V6.94326C0.0419922 3.41393 2.90699 0.54895 6.43631 0.54895H163.346C166.875 0.54895 169.74 3.41393 169.74 6.94326V21.3512C169.74 24.8805 166.875 27.7455 163.346 27.7455Z" fill="#979797"/>
<path d="M15.4463 82.72L84.8702 109.584V33.351H15.4463V82.72Z" fill="#ABABAB"/>
<path d="M154.294 82.72L84.8701 109.584V33.351H154.294V82.72Z" fill="#ABABAB"/>
<path d="M63.0304 101.114L37.2871 91.1904V33.351H63.0304V101.114Z" fill="#848484"/>
<path d="M106.711 101.114L132.454 91.1904V33.351H106.711V101.114Z" fill="#848484"/>
<path d="M84.8704 254.619C131.72 254.619 169.699 216.64 169.699 169.79C169.699 122.941 131.72 84.962 84.8704 84.962C38.0209 84.962 0.0419922 122.941 0.0419922 169.79C0.0419922 216.64 38.0209 254.619 84.8704 254.619Z" fill="#838282"/>
<path d="M84.8699 235.478C126.651 235.478 160.522 201.607 160.522 159.825C160.522 118.044 126.651 84.1732 84.8699 84.1732C43.0884 84.1732 9.21777 118.044 9.21777 159.825C9.21777 201.607 43.0884 235.478 84.8699 235.478Z" fill="#838282"/>
<path d="M84.8709 74.9554C37.9931 74.9554 0.000976562 112.948 0.000976562 159.784C0.000976562 206.662 37.9931 244.612 84.8709 244.612C131.749 244.612 169.699 206.62 169.699 159.784C169.741 112.948 131.749 74.9554 84.8709 74.9554ZM84.8709 229.208C46.5465 229.208 15.447 198.15 15.447 159.784C15.447 121.46 46.505 90.3599 84.8709 90.3599C123.195 90.3599 154.295 121.418 154.295 159.784C154.295 198.15 123.195 229.208 84.8709 229.208Z" fill="#979797"/>
<path d="M60.1238 159.867C59.1688 160.158 58.0893 160.324 56.8852 160.407C55.7226 160.49 54.7675 160.531 54.0617 160.531C51.1552 160.531 48.4563 160.116 46.0065 159.244C43.5567 158.372 41.4392 157.127 39.6537 155.507C37.8683 153.888 36.5396 151.895 35.5431 149.57C34.5881 147.244 34.0898 144.629 34.0898 141.722C34.0898 136.117 35.9168 131.632 39.5291 128.269C43.183 124.906 48.2487 123.245 54.8506 123.245C62.1999 123.245 67.7223 125.072 71.4592 128.684C75.1961 132.297 77.0646 137.279 77.0646 143.591V189.804C76.7739 189.929 76.3172 190.053 75.6944 190.178C75.0715 190.302 74.3657 190.385 73.6183 190.427C72.8709 190.51 72.0405 190.551 71.2101 190.634C70.3796 190.717 69.6323 190.759 68.9264 190.759C65.8953 190.759 63.6116 190.302 62.1584 189.347C60.7051 188.392 59.9577 186.399 59.9577 183.285V159.867H60.1238ZM57.4249 148.365C57.9232 148.365 58.3799 148.365 58.8366 148.324C59.2934 148.282 59.7086 148.241 60.1238 148.158V144.006C60.1238 141.182 59.7086 139.189 58.8366 138.068C57.9647 136.947 56.7606 136.407 55.1412 136.407C53.771 136.407 52.6499 136.906 51.8195 137.861C50.9891 138.816 50.5739 140.103 50.5739 141.722C50.5739 143.715 51.1136 145.334 52.1932 146.539C53.2312 147.743 55.0167 148.365 57.4249 148.365Z" fill="#979797"/>
<path d="M86.4902 158.414C86.4902 154.884 87.0715 151.687 88.1926 148.822C89.3552 145.957 90.9746 143.507 93.0922 141.431C95.2098 139.397 97.7841 137.777 100.815 136.656C103.846 135.494 107.251 134.954 110.988 134.954C114.725 134.954 118.13 135.535 121.161 136.656C124.192 137.819 126.808 139.397 128.967 141.431C131.126 143.466 132.745 145.916 133.908 148.822C135.07 151.687 135.61 154.884 135.61 158.414C135.61 161.943 135.029 165.14 133.908 168.005C132.745 170.87 131.126 173.32 128.967 175.396C126.808 177.43 124.233 179.008 121.161 180.129C118.13 181.25 114.725 181.79 110.988 181.79C107.251 181.79 103.846 181.25 100.815 180.129C97.7841 179.008 95.2098 177.43 93.0922 175.396C90.9746 173.361 89.3552 170.912 88.1926 168.005C87.0715 165.14 86.4902 161.943 86.4902 158.414ZM103.597 158.414C103.597 161.528 104.22 164.019 105.507 165.887C106.794 167.756 108.621 168.711 110.946 168.711C113.313 168.711 115.099 167.756 116.386 165.887C117.673 164.019 118.296 161.528 118.296 158.414C118.296 155.3 117.673 152.808 116.386 150.94C115.099 149.071 113.272 148.116 110.946 148.116C108.58 148.116 106.794 149.071 105.507 150.94C104.261 152.808 103.597 155.3 103.597 158.414Z" fill="#979797"/>
</svg>
